DataVisualisationAirIQ
…
## The following objects are masked from 'package:base':
## 
##     intersect, setdiff, setequal, union

dataset_direction_vent = dataset[,c(1,4)]

dataset_direction_vent %>%
  group_by(wind_direction,IQ) %>%
  summarise(nb=n()) %>%
  mutate(pourcentage = nb / sum(nb) * 100)

## # A tibble: 302 x 4
## # Groups:   wind_direction [37]
##    wind_direction    IQ    nb pourcentage
##             <int> <dbl> <int>       <dbl>
##  1              0     2     5       1.53 
##  2              0     3    70      21.5  
##  3              0     4    95      29.1  
##  4              0     5    70      21.5  
##  5              0     6    42      12.9  
##  6              0     7    21       6.44 
##  7              0     8    21       6.44 
##  8              0    10     2       0.613
##  9             10     2     3       1.23 
## 10             10     3    59      24.2  
## # ... with 292 more rows
…
